{

    "isMainServer" : true, 
    
    "isSubHostServer" : true, 

    "refreshSecs" : 60,
    
    "hostIP" : "127.0.0.1", 

    "hostPort" : "9001", 

    "XMLServer" : "http://127.0.0.1:9002", 

    "supHosts" : ["http://127.0.0.1:9001"],

    "citiFiltering" : ["베이징", "도쿄", "하노이", "뉴욕", "모스크바", "파리", "로마", "런던", "아부다비", "캔버라"],

    "isUseTimeZone" : true, 

    "ntpServer" : "time.bora.net",

    "timezones" : [{"베이징" : "+08:00"}, {"도쿄" : "+09:00"}, {"하노이" : "+07:00"}, {"뉴욕" : "-05:00"}, {"모스크바" : "+03:00"}, {"파리" : "+01:00"}, {"로마" : "+01:00"}, {"런던" : "+00:00"}, {"아부다비" : "+04:00"}, {"시드니" : "+11:00"}, {"서울" : "+09:00"}],

    "dateFormat" : "HH:mm a",

    "dateEN" : "MMM. DD (ddd)",
    "dateKO" : "MM. DD (ddd)",

    "sunRise" : 7,
    "sunSet" : 18,
    
    "dispayHardwareHost" : "172.21.14.185",
    "dispayHardwareHostPort" : 9010,
    
    "liveServerList" :["http://127.0.0.1:9001"],
    "liveSecs" : 10,

    "updateTimerHour" : 2,
    "refreshWeatherSecs" : 10,

    "scheduleJSonPath" : "schedule_dise.json"

}