{
    "isMainServer" : true, 
    
    "isSubHostServer" : false, 

    "refreshSecs" : 60,
    
    "hostIP" : "172.22.14.180", 

    "hostPort" : "9001", 

    "XMLServer" : "http://172.24.13.236:8090/", 

    "supHosts" : [],

    "citiFiltering" : ["베이징", "도쿄", "호치민", "뉴욕", "모스크바", "파리", "로마", "런던", "두바이", "시드니"],

    "isUseTimeZone" : true, 

    "ntpServer" : "172.22.14.1",

    "timezones" : [{"베이징" : "+08:00"}, {"도쿄" : "+09:00"}, {"호치민" : "+07:00"}, {"뉴욕" : "-05:00"}, {"모스크바" : "+03:00"}, {"파리" : "+01:00"}, {"로마" : "+01:00"}, {"런던" : "+00:00"}, {"두바이" : "+04:00"}, {"시드니" : "+10:00"}, {"서울" : "+09:00"}],

    "dateFormat" : "HH:mm a",

    "dateEN" : "MMM. DD (ddd)",
    "dateKO" : "MM. DD (ddd)",

    "sunRise" : 7,
    "sunSet" : 18,

    "dispayHardwareHost" : "172.21.14.185",
    "dispayHardwareHostPort" : 9010,
    
    "liveServerList" :["http://172.21.14.166:9001", "http://172.21.14.167:9001", "http://172.21.14.168:9001"],
    "liveSecs" : 10,

    "updateTimerHour" : 10,
    "refreshWeatherSecs" : 60,

    "scheduleJSonPath" : "schedule_dise.json"

}